{
  "main": {
    "id": "f17129262c6f7a46",
    "type": "split",
    "children": [
      {
        "id": "4edbb9cadb8a853b",
        "type": "tabs",
        "children": [
          {
            "id": "d733a42e6c0b9c36",
            "type": "leaf",
            "state": {
              "type": "markdown",
              "state": {
                "file": "Braindump.md",
                "mode": "source",
                "source": false
              }
            }
          }
        ]
      }
    ],
    "direction": "vertical"
  },
  "left": {
    "id": "1daae8504512f58a",
    "type": "split",
    "children": [
      {
        "id": "682c86f199c627c7",
        "type": "tabs",
        "children": [
          {
            "id": "6621ba8a9900dfd5",
            "type": "leaf",
            "state": {
              "type": "file-explorer",
              "state": {
                "sortOrder": "alphabetical"
              }
            }
          },
          {
            "id": "8bef3dba63b09fc5",
            "type": "leaf",
            "state": {
              "type": "search",
              "state": {
                "query": "",
                "matchingCase": false,
                "explainSearch": false,
                "collapseAll": false,
                "extraContext": false,
                "sortOrder": "alphabetical"
              }
            }
          },
          {
            "id": "366276ac1e019a8e",
            "type": "leaf",
            "state": {
              "type": "starred",
              "state": {}
            }
          }
        ]
      }
    ],
    "direction": "horizontal",
    "width": 300
  },
  "right": {
    "id": "524c02c4a8ec27a3",
    "type": "split",
    "children": [
      {
        "id": "6decf646298eb383",
        "type": "tabs",
        "children": [
          {
            "id": "46fe5653a8b76e7f",
            "type": "leaf",
            "state": {
              "type": "backlink",
              "state": {
                "file": "Braindump.md",
                "collapseAll": false,
                "extraContext": false,
                "sortOrder": "alphabetical",
                "showSearch": false,
                "searchQuery": "",
                "backlinkCollapsed": false,
                "unlinkedCollapsed": true
              }
            }
          },
          {
            "id": "60d8ba82a86b58f9",
            "type": "leaf",
            "state": {
              "type": "outgoing-link",
              "state": {
                "file": "Braindump.md",
                "linksCollapsed": false,
                "unlinkedCollapsed": true
              }
            }
          },
          {
            "id": "018e2ec5e04b1607",
            "type": "leaf",
            "state": {
              "type": "tag",
              "state": {
                "sortOrder": "frequency",
                "useHierarchy": true
              }
            }
          },
          {
            "id": "ab20ea5b49ec9bc9",
            "type": "leaf",
            "state": {
              "type": "outline",
              "state": {
                "file": "Braindump.md"
              }
            }
          }
        ]
      }
    ],
    "direction": "horizontal",
    "width": 300,
    "collapsed": true
  },
  "left-ribbon": {
    "hiddenItems": {
      "switcher:Open quick switcher": false,
      "graph:Open graph view": false,
      "canvas:Create new canvas": false,
      "daily-notes:Open today's daily note": false,
      "templates:Insert template": false,
      "command-palette:Open command palette": false
    }
  },
  "active": "d733a42e6c0b9c36",
  "lastOpenFiles": []
}